…
3 Brit… spor…    3.54             30         30         22589               19
4 Cair… terr…    3.53             59         48         21992               35
5 Wels… spor…    3.34            130         81         20224               31
6 Engl… spor…    3.33             63         51         18993               18
# ... with 11 more variables: longevity <dbl>, ailments <int>, price <dbl>,
#   food_cost <dbl>, grooming <fct>, kids <fct>, megarank_kids <int>,
#   megarank <int>, size <fct>, weight <dbl>, height <dbl>
> order(x)
[1] 1 4 2 3
> ord = order(x)
> x[ord]
[1] 1 2 3 4
> ord = order(dogs$popularity)
> dogs[ord, ]
# A tibble: 172 x 18
   breed group datadog popularity_all popularity lifetime_cost
   <chr> <fct>   <dbl>          <int>      <int>         <dbl>
 1 Labr… spor…    2.97              1          1         21299
 2 Germ… herd…    2.06              2          2         17416
 3 Beag… hound    2.79              3          3         19468
 4 Gold… spor…    2.8               4          4         21447
 5 York… toy      2.85              5          5         20701
 6 Bull… non-…    0.99              6          6         13479
 7 Boxer work…    1.83              7          7         15746
 8 Pood… non-…    3.04              8          8         21237
 9 Dach… hound    3.19              9          9         20113
10 Rott… work…    2.24             10         10         18886
# ... with 162 more rows, and 12 more variables: intelligence_rank <int>,
#   longevity <dbl>, ailments <int>, price <dbl>, food_cost <dbl>,
#   grooming <fct>, kids <fct>, megarank_kids <int>, megarank <int>,
#   size <fct>, weight <dbl>, height <dbl>
