…
    size   height
1  large 25.72596
2 medium 19.46491
3  small 11.76000
> aggregate(dogs$height, list(dogs$size, dogs$grooming), mean)
  Group.1 Group.2        x
1   large   daily 25.75000
2  medium   daily 20.28125
3   small   daily       NA
4   large  weekly       NA
5  medium  weekly       NA
6   small  weekly       NA
7  medium monthly 21.75000
> dogs[c("size", "grooming")]
# A tibble: 172 x 2
   size   grooming
   <fct>  <fct>   
 1 medium weekly  
 2 small  weekly  
 3 medium weekly  
 4 small  weekly  
 5 medium weekly  
 6 medium weekly  
 7 small  weekly  
 8 small  weekly  
 9 medium weekly  
10 small  daily   
# ... with 162 more rows
…
